{ "format" : "linked-data-api", "version" : "0.2", "result" : {"_about" : "http://eldaddp.azurewebsites.net/commonsdivisions.json?_pageSize=1&_page=0&_view=Commons+Divisions", "definition" : "http://eldaddp.azurewebsites.net/meta/commonsdivisions.json?_view=Commons+Divisions", "extendedMetadataVersion" : "http://eldaddp.azurewebsites.net/commonsdivisions.json?_pageSize=1&_page=0&_view=Commons+Divisions&_metadata=all", "first" : "http://eldaddp.azurewebsites.net/commonsdivisions.json?_page=0&_view=Commons+Divisions", "isPartOf" : {"_about" : "http://eldaddp.azurewebsites.net/commonsdivisions.json?_view=Commons+Divisions", "definition" : "http://eldaddp.azurewebsites.net/meta/commonsdivisions.json?_view=Commons+Divisions", "hasPart" : "http://eldaddp.azurewebsites.net/commonsdivisions.json?_pageSize=1&_page=0&_view=Commons+Divisions", "type" : "http://purl.org/linked-data/api/vocab#ListEndpoint"}
    , "items" : [{"_about" : "http://data.parliament.uk/resources/1105075", "date" : {"_value" : "2019-03-26", "_datatype" : "dateTime"}
      , "title" : "Offensive Weapons Bill: Louise Haigh's amendment (a) to Lords Amendment 23", "uin" : "CD:2019-03-26:645"}
    ], "itemsPerPage" : 1, "next" : "http://eldaddp.azurewebsites.net/commonsdivisions.json?_page=1&_view=Commons+Divisions", "page" : 0, "startIndex" : 1, "totalResults" : 4406, "type" : "http://purl.org/linked-data/api/vocab#Page"}
}